what,kind,bundleId,bundleVersion,description,time
activated,perspective,com.altera.sbtgui.ui,,"com.altera.sbtgui.ui.cPerspective",1360035413508
started,bundle,org.eclipse.osgi,3.6.1.R36x_v20100806,"org.eclipse.osgi",1360035413508
started,bundle,org.eclipse.equinox.simpleconfigurator,1.0.200.v20100503,"org.eclipse.equinox.simpleconfigurator",1360035413508
started,bundle,com.ibm.icu,4.2.1.v20100412,"com.ibm.icu",1360035413508
started,bundle,org.eclipse.cdt.core,5.2.1.201009141542,"org.eclipse.cdt.core",1360035413508
started,bundle,org.eclipse.cdt.make.core,7.0.0.201009141542,"org.eclipse.cdt.make.core",1360035413508
started,bundle,org.eclipse.cdt.make.ui,7.0.0.201009141542,"org.eclipse.cdt.make.ui",1360035413508
started,bundle,org.eclipse.cdt.managedbuilder.core,7.0.1.201009141542,"org.eclipse.cdt.managedbuilder.core",1360035413508
started,bundle,org.eclipse.cdt.ui,5.2.1.201009141542,"org.eclipse.cdt.ui",1360035413508
started,bundle,org.eclipse.core.contenttype,3.4.100.v20100505-1235,"org.eclipse.core.contenttype",1360035413508
started,bundle,org.eclipse.core.databinding.observable,1.3.0.I20100601-0800,"org.eclipse.core.databinding.observable",1360035413508
started,bundle,org.eclipse.core.expressions,3.4.200.v20100505,"org.eclipse.core.expressions",1360035413508
started,bundle,org.eclipse.core.filebuffers,3.5.100.v20100520-0800,"org.eclipse.core.filebuffers",1360035413508
started,bundle,org.eclipse.core.filesystem,1.3.1.R36x_v20100727-0745,"org.eclipse.core.filesystem",1360035413508
started,bundle,org.eclipse.core.jobs,3.5.1.R36x_v20100824,"org.eclipse.core.jobs",1360035413508
started,bundle,org.eclipse.core.net,1.2.100.I20100511-0800,"org.eclipse.core.net",1360035413523
started,bundle,org.eclipse.core.resources,3.6.0.R36x_v20100825-0600,"org.eclipse.core.resources",1360035413523
started,bundle,org.eclipse.core.runtime,3.6.0.v20100505,"org.eclipse.core.runtime",1360035413523
started,bundle,org.eclipse.core.runtime.compatibility,3.2.100.v20100505,"org.eclipse.core.runtime.compatibility",1360035413523
started,bundle,org.eclipse.core.runtime.compatibility.auth,3.2.200.v20100517,"org.eclipse.core.runtime.compatibility.auth",1360035413523
started,bundle,org.eclipse.debug.core,3.6.0.v20100519,"org.eclipse.debug.core",1360035413523
started,bundle,org.eclipse.epp.usagedata.gathering,1.3.0.R201005261100,"org.eclipse.epp.usagedata.gathering",1360035413523
started,bundle,org.eclipse.epp.usagedata.recording,1.3.0.R201005261100,"org.eclipse.epp.usagedata.recording",1360035413523
started,bundle,org.eclipse.equinox.app,1.3.1.R36x_v20100803,"org.eclipse.equinox.app",1360035413523
started,bundle,org.eclipse.equinox.common,3.6.0.v20100503,"org.eclipse.equinox.common",1360035413523
started,bundle,org.eclipse.equinox.ds,1.2.1.R36x_v20100803,"org.eclipse.equinox.ds",1360035413523
started,bundle,org.eclipse.equinox.event,1.2.0.v20100503,"org.eclipse.equinox.event",1360035413523
started,bundle,org.eclipse.equinox.p2.core,2.0.2.R36x_v20100804,"org.eclipse.equinox.p2.core",1360035413523
started,bundle,org.eclipse.equinox.p2.directorywatcher,1.0.202.R36x_v20100727,"org.eclipse.equinox.p2.directorywatcher",1360035413523
started,bundle,org.eclipse.equinox.p2.engine,2.0.0.v20100606,"org.eclipse.equinox.p2.engine",1360035413523
started,bundle,org.eclipse.equinox.p2.metadata,2.0.0.v20100601,"org.eclipse.equinox.p2.metadata",1360035413523
started,bundle,org.eclipse.equinox.p2.metadata.repository,1.1.0.v20100513,"org.eclipse.equinox.p2.metadata.repository",1360035413523
started,bundle,org.eclipse.equinox.p2.operations,2.0.0.v20100510,"org.eclipse.equinox.p2.operations",1360035413523
started,bundle,org.eclipse.equinox.p2.reconciler.dropins,1.1.0.v20100525,"org.eclipse.equinox.p2.reconciler.dropins",1360035413523
started,bundle,org.eclipse.equinox.p2.repository,2.0.1.R36x_v20100823,"org.eclipse.equinox.p2.repository",1360035413523
started,bundle,org.eclipse.equinox.p2.ui.sdk.scheduler,1.0.0.v20100507-1815,"org.eclipse.equinox.p2.ui.sdk.scheduler",1360035413523
started,bundle,org.eclipse.equinox.p2.updatechecker,1.1.101.R36x_v20100823,"org.eclipse.equinox.p2.updatechecker",1360035413523
started,bundle,org.eclipse.equinox.preferences,3.3.0.v20100503,"org.eclipse.equinox.preferences",1360035413523
started,bundle,org.eclipse.equinox.registry,3.5.0.v20100503,"org.eclipse.equinox.registry",1360035413523
started,bundle,org.eclipse.equinox.security,1.0.200.v20100503,"org.eclipse.equinox.security",1360035413523
started,bundle,org.eclipse.equinox.util,1.0.200.v20100503,"org.eclipse.equinox.util",1360035413523
started,bundle,org.eclipse.help,3.5.0.v20100524,"org.eclipse.help",1360035413523
started,bundle,org.eclipse.jface,3.6.1.M20100825-0800,"org.eclipse.jface",1360035413539
started,bundle,org.eclipse.jsch.core,1.1.200.I20100505-1245,"org.eclipse.jsch.core",1360035413539
started,bundle,org.eclipse.ltk.core.refactoring,3.5.100.v20100526-0800,"org.eclipse.ltk.core.refactoring",1360035413539
started,bundle,org.eclipse.ltk.ui.refactoring,3.5.0.v20100526-0800,"org.eclipse.ltk.ui.refactoring",1360035413539
started,bundle,org.eclipse.mylyn.bugzilla.core,3.4.2.v20100902-0100-e3x,"org.eclipse.mylyn.bugzilla.core",1360035413555
started,bundle,org.eclipse.mylyn.bugzilla.ui,3.4.2.v20100909-0100-e3x,"org.eclipse.mylyn.bugzilla.ui",1360035413555
started,bundle,org.eclipse.mylyn.commons.net,3.4.1.v20100625-2100-e3x,"org.eclipse.mylyn.commons.net",1360035413555
started,bundle,org.eclipse.mylyn.commons.ui,3.4.0.v20100608-0100-e3x,"org.eclipse.mylyn.commons.ui",1360035413555
started,bundle,org.eclipse.mylyn.context.core,3.4.1.v20100909-0100-e3x,"org.eclipse.mylyn.context.core",1360035413555
started,bundle,org.eclipse.mylyn.context.ui,3.4.1.v20100909-0100-e3x,"org.eclipse.mylyn.context.ui",1360035413555
started,bundle,org.eclipse.mylyn.monitor.ui,3.4.0.v20100608-0100-e3x,"org.eclipse.mylyn.monitor.ui",1360035413555
started,bundle,org.eclipse.mylyn.tasks.ui,3.4.2.v20100902-0100-e3x,"org.eclipse.mylyn.tasks.ui",1360035413570
started,bundle,org.eclipse.mylyn.team.ui,3.4.2.v20100909-0100-e3x,"org.eclipse.mylyn.team.ui",1360035413570
started,bundle,org.eclipse.team.core,3.5.100.R36x_v20100825-0800,"org.eclipse.team.core",1360035413570
started,bundle,org.eclipse.team.cvs.core,3.3.300.I20100526-0800,"org.eclipse.team.cvs.core",1360035413570
started,bundle,org.eclipse.team.cvs.ui,3.3.301.R36x_v20100825-0800,"org.eclipse.team.cvs.ui",1360035413570
started,bundle,org.eclipse.team.ui,3.5.101.R36x_v20100825-0800,"org.eclipse.team.ui",1360035413570
started,bundle,org.eclipse.ui,3.6.1.M20100826-1330,"org.eclipse.ui",1360035413570
started,bundle,org.eclipse.ui.console,3.5.0.v20100526,"org.eclipse.ui.console",1360035413570
started,bundle,org.eclipse.ui.editors,3.6.1.r361_v20100825-0800,"org.eclipse.ui.editors",1360035413570
started,bundle,org.eclipse.ui.forms,3.5.2.r36_v20100702,"org.eclipse.ui.forms",1360035413570
started,bundle,org.eclipse.ui.ide,3.6.1.M20100825-0800,"org.eclipse.ui.ide",1360035413570
started,bundle,org.eclipse.ui.intro,3.4.0.v20100427,"org.eclipse.ui.intro",1360035413570
started,bundle,org.eclipse.ui.intro.universal,3.2.402.r36_v20100702,"org.eclipse.ui.intro.universal",1360035413570
started,bundle,org.eclipse.ui.navigator,3.5.0.I20100601-0800,"org.eclipse.ui.navigator",1360035413570
started,bundle,org.eclipse.ui.navigator.resources,3.4.201.M20100707-0800,"org.eclipse.ui.navigator.resources",1360035413570
started,bundle,org.eclipse.ui.net,1.2.100.I20100505-1245,"org.eclipse.ui.net",1360035413570
started,bundle,org.eclipse.ui.views,3.5.0.I20100527-0800,"org.eclipse.ui.views",1360035413570
started,bundle,org.eclipse.ui.workbench,3.6.1.M20100826-1330,"org.eclipse.ui.workbench",1360035413570
started,bundle,org.eclipse.ui.workbench.texteditor,3.6.1.r361_v20100714-0800,"org.eclipse.ui.workbench.texteditor",1360035413586
started,bundle,org.eclipse.update.configurator,3.3.100.v20100512,"org.eclipse.update.configurator",1360035413586
started,bundle,org.eclipse.update.core,3.2.402.R36x_v20100629,"org.eclipse.update.core",1360035413586
started,bundle,org.eclipse.update.scheduler,3.2.300.v20100512,"org.eclipse.update.scheduler",1360035413586
started,bundle,com.altera.sbtgui.integration,11.1.0.259,"com.altera.sbtgui.integration",1360035413586
started,bundle,com.altera.sbtgui.launch,11.1.0.259,"com.altera.sbtgui.launch",1360035413586
started,bundle,com.altera.sbtgui.project,11.1.0.259,"com.altera.sbtgui.project",1360035413586
started,bundle,com.altera.sbtgui.ui,11.1.0.259,"com.altera.sbtgui.ui",1360035413586
started,bundle,com.altera.systemconsole,11.1.0.259,"com.altera.systemconsole",1360035413586
started,bundle,com.altera.utilities,11.1.0.259,"com.altera.utilities",1360035413586
os,sysinfo,,,"win32",1360035413586
arch,sysinfo,,,"x86",1360035413586
ws,sysinfo,,,"win32",1360035413586
locale,sysinfo,,,"zh_CN",1360035413586
processors,sysinfo,,,"4",1360035413586
java.runtime.name,sysinfo,,,"Java(TM) SE Runtime Environment",1360035413586
java.runtime.version,sysinfo,,,"1.6.0_23-b05",1360035413586
java.specification.name,sysinfo,,,"Java Platform API Specification",1360035413586
java.specification.vendor,sysinfo,,,"Sun Microsystems Inc.",1360035413586
java.specification.version,sysinfo,,,"1.6",1360035413586
java.vendor,sysinfo,,,"Sun Microsystems Inc.",1360035413586
java.version,sysinfo,,,"1.6.0_23",1360035413586
java.vm.info,sysinfo,,,"mixed mode",1360035413586
java.vm.name,sysinfo,,,"Java HotSpot(TM) Client VM",1360035413586
java.vm.specification.name,sysinfo,,,"Java Virtual Machine Specification",1360035413586
java.vm.specification.vendor,sysinfo,,,"Sun Microsystems Inc.",1360035413586
java.vm.specification.version,sysinfo,,,"1.0",1360035413586
java.vm.vendor,sysinfo,,,"Sun Microsystems Inc.",1360035413586
java.vm.version,sysinfo,,,"19.0-b09",1360035413586
started,bundle,com.altera.sbtgui.core,11.1.0.259,"com.altera.sbtgui.core",1360035416523
opened,view,org.eclipse.ui.console,3.5.0.v20100526,"org.eclipse.ui.console.ConsoleView",1360035416758
started,bundle,org.eclipse.cdt.dsf.gdb.ui,2.1.0.201009141542,"org.eclipse.cdt.dsf.gdb.ui",1360035416930
started,bundle,org.eclipse.debug.ui,3.6.1.v20100901_r361,"org.eclipse.debug.ui",1360035416977
deactivated,workbench,org.eclipse.ui.workbench,3.6.1.M20100826-1330,"",1360035417617
executed,command,org.eclipse.ui,3.6.1.M20100826-1330,"org.eclipse.ui.edit.copy",1360035435195
activated,workbench,org.eclipse.ui.workbench,3.6.1.M20100826-1330,"",1360035442944
started,bundle,org.eclipse.core.variables,3.2.400.v20100505,"org.eclipse.core.variables",1360035452819
started,bundle,org.eclipse.cdt.managedbuilder.gnu.ui,7.0.0.201009141542,"org.eclipse.cdt.managedbuilder.gnu.ui",1360035455397
deactivated,workbench,org.eclipse.ui.workbench,3.6.1.M20100826-1330,"",1360035460850
activated,workbench,org.eclipse.ui.workbench,3.6.1.M20100826-1330,"",1360035476631
deactivated,workbench,org.eclipse.ui.workbench,3.6.1.M20100826-1330,"",1360035546847
activated,workbench,org.eclipse.ui.workbench,3.6.1.M20100826-1330,"",1360035554035
executed,command,org.eclipse.ui,3.6.1.M20100826-1330,"org.eclipse.ui.edit.paste",1360035554988
deactivated,workbench,org.eclipse.ui.workbench,3.6.1.M20100826-1330,"",1360035555566
activated,workbench,org.eclipse.ui.workbench,3.6.1.M20100826-1330,"",1360035557769
deactivated,workbench,org.eclipse.ui.workbench,3.6.1.M20100826-1330,"",1360035559566
activated,workbench,org.eclipse.ui.workbench,3.6.1.M20100826-1330,"",1360035560863
started,bundle,org.eclipse.search,3.6.0.v20100520-0800,"org.eclipse.search",1360035561347
started,bundle,org.eclipse.compare,3.5.100.I20100526-0800,"org.eclipse.compare",1360035561425
started,bundle,org.eclipse.cdt.debug.core,7.0.0.201009141542,"org.eclipse.cdt.debug.core",1360035562628
started,bundle,org.eclipse.cdt.debug.ui,7.0.0.201009141542,"org.eclipse.cdt.debug.ui",1360035562628
started,bundle,org.eclipse.compare.core,3.5.100.I20100526-0800,"org.eclipse.compare.core",1360035566159
opened,editor,org.eclipse.ui.editors,3.6.1.r361_v20100825-0800,"org.eclipse.ui.DefaultTextEditor",1360035566206
activated,editor,org.eclipse.ui.editors,3.6.1.r361_v20100825-0800,"org.eclipse.ui.DefaultTextEditor",1360035566269
activated,view,org.eclipse.ui.navigator.resources,3.4.201.M20100707-0800,"org.eclipse.ui.navigator.ProjectExplorer",1360035566409
activated,editor,org.eclipse.ui.editors,3.6.1.r361_v20100825-0800,"org.eclipse.ui.DefaultTextEditor",1360035567253
executed,command,org.eclipse.ui,3.6.1.M20100826-1330,"org.eclipse.ui.edit.copy",1360035570425
executed,command,org.eclipse.ui,3.6.1.M20100826-1330,"org.eclipse.ui.file.saveAll",1360035574753
activated,view,org.eclipse.ui.navigator.resources,3.4.201.M20100707-0800,"org.eclipse.ui.navigator.ProjectExplorer",1360035575393
deactivated,workbench,org.eclipse.ui.workbench,3.6.1.M20100826-1330,"",1360035578893
activated,workbench,org.eclipse.ui.workbench,3.6.1.M20100826-1330,"",1360035609064
deactivated,workbench,org.eclipse.ui.workbench,3.6.1.M20100826-1330,"",1360035612798
activated,workbench,org.eclipse.ui.workbench,3.6.1.M20100826-1330,"",1360035678125
deactivated,workbench,org.eclipse.ui.workbench,3.6.1.M20100826-1330,"",1360035687437
activated,workbench,org.eclipse.ui.workbench,3.6.1.M20100826-1330,"",1360035749357
deactivated,workbench,org.eclipse.ui.workbench,3.6.1.M20100826-1330,"",1360035750951
activated,workbench,org.eclipse.ui.workbench,3.6.1.M20100826-1330,"",1360035750982
deactivated,workbench,org.eclipse.ui.workbench,3.6.1.M20100826-1330,"",1360035751092
activated,workbench,org.eclipse.ui.workbench,3.6.1.M20100826-1330,"",1360035802762
deactivated,workbench,org.eclipse.ui.workbench,3.6.1.M20100826-1330,"",1360035802793
activated,workbench,org.eclipse.ui.workbench,3.6.1.M20100826-1330,"",1360035804012
activated,editor,org.eclipse.ui.editors,3.6.1.r361_v20100825-0800,"org.eclipse.ui.DefaultTextEditor",1360035804043
deactivated,workbench,org.eclipse.ui.workbench,3.6.1.M20100826-1330,"",1360035805981
activated,workbench,org.eclipse.ui.workbench,3.6.1.M20100826-1330,"",1360035807871
deactivated,workbench,org.eclipse.ui.workbench,3.6.1.M20100826-1330,"",1360035808825
activated,workbench,org.eclipse.ui.workbench,3.6.1.M20100826-1330,"",1360035808825
deactivated,workbench,org.eclipse.ui.workbench,3.6.1.M20100826-1330,"",1360035808981
activated,workbench,org.eclipse.ui.workbench,3.6.1.M20100826-1330,"",1360036004460
deactivated,workbench,org.eclipse.ui.workbench,3.6.1.M20100826-1330,"",1360036009851
activated,workbench,org.eclipse.ui.workbench,3.6.1.M20100826-1330,"",1360036009851
deactivated,workbench,org.eclipse.ui.workbench,3.6.1.M20100826-1330,"",1360036009882
activated,workbench,org.eclipse.ui.workbench,3.6.1.M20100826-1330,"",1360036023163
deactivated,workbench,org.eclipse.ui.workbench,3.6.1.M20100826-1330,"",1360036023819
activated,workbench,org.eclipse.ui.workbench,3.6.1.M20100826-1330,"",1360036023975
deactivated,workbench,org.eclipse.ui.workbench,3.6.1.M20100826-1330,"",1360036024460
activated,workbench,org.eclipse.ui.workbench,3.6.1.M20100826-1330,"",1360036025632
closed,workbench,org.eclipse.ui.workbench,3.6.1.M20100826-1330,"",1360036025928
stopped,bundle,org.eclipse.cdt.debug.mi.ui,6.1.0.201009141542,"org.eclipse.cdt.debug.mi.ui",1360036026147
stopped,bundle,com.altera.debug.cdi.gdb.plugin,11.1.0.259,"com.altera.debug.cdi.gdb.plugin",1360036026147
stopped,bundle,com.altera.sbtgui.launch,11.1.0.259,"com.altera.sbtgui.launch",1360036026147
stopped,bundle,org.eclipse.cdt.debug.mi.core,7.0.1.201009141542,"org.eclipse.cdt.debug.mi.core",1360036026147
stopped,bundle,org.eclipse.cdt.debug.ui.memory.memorybrowser,1.2.0.201009141542,"org.eclipse.cdt.debug.ui.memory.memorybrowser",1360036026147
stopped,bundle,org.eclipse.cdt.debug.ui.memory.search,1.2.0.201009141542,"org.eclipse.cdt.debug.ui.memory.search",1360036026147
stopped,bundle,org.eclipse.cdt.dsf.gdb.ui,2.1.0.201009141542,"org.eclipse.cdt.dsf.gdb.ui",1360036026147
stopped,bundle,org.eclipse.cdt.dsf.ui,2.1.1.201009141542,"org.eclipse.cdt.dsf.ui",1360036026147
stopped,bundle,org.eclipse.cdt.gdb.ui,7.0.0.201009141542,"org.eclipse.cdt.gdb.ui",1360036026147
stopped,bundle,org.eclipse.cdt.dsf.gdb,3.0.0.201009141542,"org.eclipse.cdt.dsf.gdb",1360036026147
stopped,bundle,com.altera.sbtgui.ui,11.1.0.259,"com.altera.sbtgui.ui",1360036026147
stopped,bundle,com.altera.sbtgui.project,11.1.0.259,"com.altera.sbtgui.project",1360036026147
stopped,bundle,org.eclipse.cdt.launch,6.1.0.201009141542,"org.eclipse.cdt.launch",1360036026194
stopped,bundle,org.eclipse.cdt.debug.ui,7.0.0.201009141542,"org.eclipse.cdt.debug.ui",1360036026194
stopped,bundle,org.eclipse.cdt.debug.ui.memory.traditional,1.2.0.201009141542,"org.eclipse.cdt.debug.ui.memory.traditional",1360036026241
stopped,bundle,org.eclipse.cdt.dsf,2.1.0.201009141542,"org.eclipse.cdt.dsf",1360036026257
stopped,bundle,org.eclipse.cdt.debug.core,7.0.0.201009141542,"org.eclipse.cdt.debug.core",1360036026257
stopped,bundle,org.eclipse.cdt.managedbuilder.ui,7.0.0.201009141542,"org.eclipse.cdt.managedbuilder.ui",1360036026303
stopped,bundle,org.eclipse.cdt.make.ui,7.0.0.201009141542,"org.eclipse.cdt.make.ui",1360036026303
stopped,bundle,org.eclipse.cdt.managedbuilder.gnu.ui,7.0.0.201009141542,"org.eclipse.cdt.managedbuilder.gnu.ui",1360036026303
stopped,bundle,org.eclipse.cdt.managedbuilder.core,7.0.1.201009141542,"org.eclipse.cdt.managedbuilder.core",1360036026303
stopped,bundle,org.eclipse.cdt.make.core,7.0.0.201009141542,"org.eclipse.cdt.make.core",1360036026303
stopped,bundle,org.eclipse.cdt.mylyn.ui,1.1.3.v20100909-0100-e3x,"org.eclipse.cdt.mylyn.ui",1360036026319
stopped,bundle,com.altera.sbtgui.flash.plugin,11.1.0.259,"com.altera.sbtgui.flash.plugin",1360036026319
stopped,bundle,com.altera.sbtgui.gprof,11.1.0.259,"com.altera.sbtgui.gprof",1360036026397
stopped,bundle,com.altera.sbtgui.core,11.1.0.259,"com.altera.sbtgui.core",1360036026397
stopped,bundle,org.eclipse.cdt.ui,5.2.1.201009141542,"org.eclipse.cdt.ui",1360036026397
stopped,bundle,org.eclipse.cdt.core,5.2.1.201009141542,"org.eclipse.cdt.core",1360036026397
activated,perspective,com.altera.sbtgui.ui,,"com.altera.sbtgui.ui.cPerspective",1360036218314
started,bundle,org.eclipse.osgi,3.6.1.R36x_v20100806,"org.eclipse.osgi",1360036218314
started,bundle,org.eclipse.equinox.simpleconfigurator,1.0.200.v20100503,"org.eclipse.equinox.simpleconfigurator",1360036218314
started,bundle,com.ibm.icu,4.2.1.v20100412,"com.ibm.icu",1360036218314
started,bundle,org.eclipse.cdt.core,5.2.1.201009141542,"org.eclipse.cdt.core",1360036218314
started,bundle,org.eclipse.cdt.make.core,7.0.0.201009141542,"org.eclipse.cdt.make.core",1360036218314
started,bundle,org.eclipse.cdt.make.ui,7.0.0.201009141542,"org.eclipse.cdt.make.ui",1360036218314
started,bundle,org.eclipse.cdt.managedbuilder.core,7.0.1.201009141542,"org.eclipse.cdt.managedbuilder.core",1360036218314
started,bundle,org.eclipse.cdt.managedbuilder.gnu.ui,7.0.0.201009141542,"org.eclipse.cdt.managedbuilder.gnu.ui",1360036218314
started,bundle,org.eclipse.cdt.ui,5.2.1.201009141542,"org.eclipse.cdt.ui",1360036218314
started,bundle,org.eclipse.compare.core,3.5.100.I20100526-0800,"org.eclipse.compare.core",1360036218330
started,bundle,org.eclipse.core.contenttype,3.4.100.v20100505-1235,"org.eclipse.core.contenttype",1360036218330
started,bundle,org.eclipse.core.databinding.observable,1.3.0.I20100601-0800,"org.eclipse.core.databinding.observable",1360036218330
started,bundle,org.eclipse.core.expressions,3.4.200.v20100505,"org.eclipse.core.expressions",1360036218330
started,bundle,org.eclipse.core.filebuffers,3.5.100.v20100520-0800,"org.eclipse.core.filebuffers",1360036218330
started,bundle,org.eclipse.core.filesystem,1.3.1.R36x_v20100727-0745,"org.eclipse.core.filesystem",1360036218330
started,bundle,org.eclipse.core.jobs,3.5.1.R36x_v20100824,"org.eclipse.core.jobs",1360036218330
started,bundle,org.eclipse.core.net,1.2.100.I20100511-0800,"org.eclipse.core.net",1360036218330
started,bundle,org.eclipse.core.resources,3.6.0.R36x_v20100825-0600,"org.eclipse.core.resources",1360036218330
started,bundle,org.eclipse.core.runtime,3.6.0.v20100505,"org.eclipse.core.runtime",1360036218330
started,bundle,org.eclipse.core.runtime.compatibility,3.2.100.v20100505,"org.eclipse.core.runtime.compatibility",1360036218330
started,bundle,org.eclipse.core.runtime.compatibility.auth,3.2.200.v20100517,"org.eclipse.core.runtime.compatibility.auth",1360036218330
started,bundle,org.eclipse.core.variables,3.2.400.v20100505,"org.eclipse.core.variables",1360036218330
started,bundle,org.eclipse.debug.core,3.6.0.v20100519,"org.eclipse.debug.core",1360036218330
started,bundle,org.eclipse.epp.usagedata.gathering,1.3.0.R201005261100,"org.eclipse.epp.usagedata.gathering",1360036218330
started,bundle,org.eclipse.epp.usagedata.recording,1.3.0.R201005261100,"org.eclipse.epp.usagedata.recording",1360036218330
started,bundle,org.eclipse.equinox.app,1.3.1.R36x_v20100803,"org.eclipse.equinox.app",1360036218330
started,bundle,org.eclipse.equinox.common,3.6.0.v20100503,"org.eclipse.equinox.common",1360036218330
started,bundle,org.eclipse.equinox.ds,1.2.1.R36x_v20100803,"org.eclipse.equinox.ds",1360036218330
started,bundle,org.eclipse.equinox.event,1.2.0.v20100503,"org.eclipse.equinox.event",1360036218330
started,bundle,org.eclipse.equinox.p2.core,2.0.2.R36x_v20100804,"org.eclipse.equinox.p2.core",1360036218330
started,bundle,org.eclipse.equinox.p2.directorywatcher,1.0.202.R36x_v20100727,"org.eclipse.equinox.p2.directorywatcher",1360036218330
started,bundle,org.eclipse.equinox.p2.engine,2.0.0.v20100606,"org.eclipse.equinox.p2.engine",1360036218330
started,bundle,org.eclipse.equinox.p2.metadata,2.0.0.v20100601,"org.eclipse.equinox.p2.metadata",1360036218330
started,bundle,org.eclipse.equinox.p2.metadata.repository,1.1.0.v20100513,"org.eclipse.equinox.p2.metadata.repository",1360036218330
started,bundle,org.eclipse.equinox.p2.operations,2.0.0.v20100510,"org.eclipse.equinox.p2.operations",1360036218330
started,bundle,org.eclipse.equinox.p2.reconciler.dropins,1.1.0.v20100525,"org.eclipse.equinox.p2.reconciler.dropins",1360036218345
started,bundle,org.eclipse.equinox.p2.repository,2.0.1.R36x_v20100823,"org.eclipse.equinox.p2.repository",1360036218345
started,bundle,org.eclipse.equinox.p2.ui.sdk.scheduler,1.0.0.v20100507-1815,"org.eclipse.equinox.p2.ui.sdk.scheduler",1360036218345
started,bundle,org.eclipse.equinox.p2.updatechecker,1.1.101.R36x_v20100823,"org.eclipse.equinox.p2.updatechecker",1360036218345
started,bundle,org.eclipse.equinox.preferences,3.3.0.v20100503,"org.eclipse.equinox.preferences",1360036218345
started,bundle,org.eclipse.equinox.registry,3.5.0.v20100503,"org.eclipse.equinox.registry",1360036218345
started,bundle,org.eclipse.equinox.security,1.0.200.v20100503,"org.eclipse.equinox.security",1360036218345
started,bundle,org.eclipse.equinox.util,1.0.200.v20100503,"org.eclipse.equinox.util",1360036218345
started,bundle,org.eclipse.help,3.5.0.v20100524,"org.eclipse.help",1360036218345
started,bundle,org.eclipse.jface,3.6.1.M20100825-0800,"org.eclipse.jface",1360036218345
started,bundle,org.eclipse.jsch.core,1.1.200.I20100505-1245,"org.eclipse.jsch.core",1360036218345
started,bundle,org.eclipse.ltk.core.refactoring,3.5.100.v20100526-0800,"org.eclipse.ltk.core.refactoring",1360036218345
started,bundle,org.eclipse.mylyn.bugzilla.core,3.4.2.v20100902-0100-e3x,"org.eclipse.mylyn.bugzilla.core",1360036218345
started,bundle,org.eclipse.mylyn.bugzilla.ui,3.4.2.v20100909-0100-e3x,"org.eclipse.mylyn.bugzilla.ui",1360036218345
started,bundle,org.eclipse.mylyn.commons.net,3.4.1.v20100625-2100-e3x,"org.eclipse.mylyn.commons.net",1360036218345
started,bundle,org.eclipse.mylyn.commons.ui,3.4.0.v20100608-0100-e3x,"org.eclipse.mylyn.commons.ui",1360036218345
started,bundle,org.eclipse.mylyn.context.core,3.4.1.v20100909-0100-e3x,"org.eclipse.mylyn.context.core",1360036218345
started,bundle,org.eclipse.mylyn.context.ui,3.4.1.v20100909-0100-e3x,"org.eclipse.mylyn.context.ui",1360036218345
started,bundle,org.eclipse.mylyn.monitor.ui,3.4.0.v20100608-0100-e3x,"org.eclipse.mylyn.monitor.ui",1360036218345
started,bundle,org.eclipse.mylyn.tasks.ui,3.4.2.v20100902-0100-e3x,"org.eclipse.mylyn.tasks.ui",1360036218345
started,bundle,org.eclipse.mylyn.team.ui,3.4.2.v20100909-0100-e3x,"org.eclipse.mylyn.team.ui",1360036218345
started,bundle,org.eclipse.team.core,3.5.100.R36x_v20100825-0800,"org.eclipse.team.core",1360036218345
started,bundle,org.eclipse.team.cvs.core,3.3.300.I20100526-0800,"org.eclipse.team.cvs.core",1360036218345
started,bundle,org.eclipse.team.cvs.ui,3.3.301.R36x_v20100825-0800,"org.eclipse.team.cvs.ui",1360036218345
started,bundle,org.eclipse.team.ui,3.5.101.R36x_v20100825-0800,"org.eclipse.team.ui",1360036218345
started,bundle,org.eclipse.ui,3.6.1.M20100826-1330,"org.eclipse.ui",1360036218361
started,bundle,org.eclipse.ui.console,3.5.0.v20100526,"org.eclipse.ui.console",1360036218361
started,bundle,org.eclipse.ui.editors,3.6.1.r361_v20100825-0800,"org.eclipse.ui.editors",1360036218361
started,bundle,org.eclipse.ui.forms,3.5.2.r36_v20100702,"org.eclipse.ui.forms",1360036218361
started,bundle,org.eclipse.ui.ide,3.6.1.M20100825-0800,"org.eclipse.ui.ide",1360036218361
started,bundle,org.eclipse.ui.intro,3.4.0.v20100427,"org.eclipse.ui.intro",1360036218361
started,bundle,org.eclipse.ui.intro.universal,3.2.402.r36_v20100702,"org.eclipse.ui.intro.universal",1360036218361
started,bundle,org.eclipse.ui.navigator,3.5.0.I20100601-0800,"org.eclipse.ui.navigator",1360036218361
started,bundle,org.eclipse.ui.navigator.resources,3.4.201.M20100707-0800,"org.eclipse.ui.navigator.resources",1360036218361
started,bundle,org.eclipse.ui.net,1.2.100.I20100505-1245,"org.eclipse.ui.net",1360036218361
started,bundle,org.eclipse.ui.views,3.5.0.I20100527-0800,"org.eclipse.ui.views",1360036218361
started,bundle,org.eclipse.ui.workbench,3.6.1.M20100826-1330,"org.eclipse.ui.workbench",1360036218361
started,bundle,org.eclipse.ui.workbench.texteditor,3.6.1.r361_v20100714-0800,"org.eclipse.ui.workbench.texteditor",1360036218361
started,bundle,org.eclipse.update.configurator,3.3.100.v20100512,"org.eclipse.update.configurator",1360036218361
