$date
  Tue Nov  9 12:56:00 2021
$end
$version
  GHDL v0
$end
$timescale
  1 fs
$end
$scope module standard $end
$upscope $end
$scope module std_logic_1164 $end
$upscope $end
$scope module numeric_std $end
$upscope $end
$scope module tb_add_sub $end
$var reg 8 ! a[7:0] $end
$var reg 8 " b[7:0] $end
$var reg 1 # m $end
$var reg 8 $ r[7:0] $end
$var reg 1 % co $end
$scope module dut $end
$var reg 8 & a[7:0] $end
$var reg 8 ' b[7:0] $end
$var reg 1 ( m $end
$var reg 8 ) r[7:0] $end
$var reg 1 * co $end
$var reg 9 + u_a[8:0] $end
$var reg 9 , u_b[8:0] $end
$var reg 9 - u_r[8:0] $end
$upscope $end
$upscope $end
$enddefinitions $end
#0
b00000000 !
b00000000 "
0#
b00000000 $
0%
b00000000 &
b00000000 '
0(
b00000000 )
0*
b000000000 +
b000000000 ,
b000000000 -
#10000000
b00000010 !
b00000010 "
b00000100 $
b00000010 &
b00000010 '
b00000100 )
b000000010 +
b000000010 ,
b000000100 -
#20000000
b11111101 !
b00000100 "
b00000001 $
1%
b11111101 &
b00000100 '
b00000001 )
1*
b011111101 +
b000000100 ,
b100000001 -
#30000000
b00001110 !
b01001100 "
b01011010 $
0%
b00001110 &
b01001100 '
b01011010 )
0*
b000001110 +
b001001100 ,
b001011010 -
#40000000
b00001001 !
b11111111 "
b00001000 $
1%
b00001001 &
b11111111 '
b00001000 )
1*
b000001001 +
b011111111 ,
b100001000 -
#50000000
b11111010 !
b11111010 "
1#
b00000000 $
0%
b11111010 &
b11111010 '
1(
b00000000 )
0*
b011111010 +
b011111010 ,
b000000000 -
#60000000
b00000011 !
b00001101 "
b00001010 $
b00000011 &
b00001101 '
b00001010 )
b000000011 +
b000001101 ,
b000001010 -
#70000000
b00001100 !
b00000001 "
b11110101 $
1%
b00001100 &
b00000001 '
b11110101 )
1*
b000001100 +
b000000001 ,
b111110101 -
#80000000
b00000001 !
b00000011 "
b00000010 $
0%
b00000001 &
b00000011 '
b00000010 )
0*
b000000001 +
b000000011 ,
b000000010 -
#90000000
