Running: F:\Software\Xilinx\14.7\ISE_DS\ISE\bin\nt64\unwrapped\fuse.exe -intstyle ise -incremental -o C:/Users/elagu/OneDrive/Documentos/vhdl_proyectos/vga_pro/bresenham/bresenham_tb_isim_beh.exe -prj C:/Users/elagu/OneDrive/Documentos/vhdl_proyectos/vga_pro/bresenham/bresenham_tb_beh.prj work.bresenham_tb 
ISim P.20131013 (signature 0x7708f090)
Number of CPUs detected in this system: 2
Turning on mult-threading, number of parallel sub-compilation jobs: 4 
Determining compilation order of HDL files
Parsing VHDL file "C:/Users/elagu/OneDrive/Documentos/vhdl_proyectos/vga_pro/bresenham/delta_mayor.vhd" into library work
Parsing VHDL file "C:/Users/elagu/OneDrive/Documentos/vhdl_proyectos/vga_pro/bresenham/delta.vhd" into library work
Parsing VHDL file "C:/Users/elagu/OneDrive/Documentos/vhdl_proyectos/vga_pro/bresenham/coor.vhd" into library work
Parsing VHDL file "C:/Users/elagu/OneDrive/Documentos/vhdl_proyectos/vga_pro/bresenham/control.vhd" into library work
Parsing VHDL file "C:/Users/elagu/OneDrive/Documentos/vhdl_proyectos/vga_pro/bresenham/av_signal.vhd" into library work
Parsing VHDL file "C:/Users/elagu/OneDrive/Documentos/vhdl_proyectos/vga_pro/bresenham/bresenham.vhd" into library work
Parsing VHDL file "C:/Users/elagu/OneDrive/Documentos/vhdl_proyectos/vga_pro/bresenham/bresenham_tb.vhd" into library work
Starting static elaboration
Completed static elaboration
Compiling package standard
Compiling package std_logic_1164
Compiling package numeric_std
Compiling architecture behavioral of entity delta [\delta(11)\]
Compiling architecture arch of entity delta_mayor [\delta_mayor(11)\]
Compiling architecture arch of entity av_signal [\av_signal(11)\]
Compiling architecture behavioral of entity coor [\coor(11)\]
Compiling architecture control of entity controlpath [controlpath_default]
Compiling architecture behavioral of entity bresenham [\bresenham(11)\]
Compiling architecture behavior of entity bresenham_tb
Time Resolution for simulation is 1ps.
Waiting for 6 sub-compilation(s) to finish...
Compiled 16 VHDL Units
Built simulation executable C:/Users/elagu/OneDrive/Documentos/vhdl_proyectos/vga_pro/bresenham/bresenham_tb_isim_beh.exe
Fuse Memory Usage: 35676 KB
Fuse CPU Usage: 781 ms
