$date
  Sat Oct 24 14:11:49 2020
$end
$version
  GHDL v0
$end
$timescale
  1 fs
$end
$scope module standard $end
$upscope $end
$scope module std_logic_1164 $end
$upscope $end
$scope module numeric_std $end
$upscope $end
$scope module tb_fsm_aast $end
$var reg 1 ! clk $end
$var reg 1 " ini_l $end
$var reg 1 # y $end
$var reg 1 $ o $end
$var reg 1 % tbclock $end
$var reg 1 & tbsimended $end
$scope module dut $end
$var reg 1 ' clk $end
$var reg 1 ( ini_l $end
$var reg 1 ) y $end
$var reg 1 * o $end
$var reg 4 + s_reg[3:0] $end
$var reg 4 , s_next[3:0] $end
$var reg 1 - ini $end
$upscope $end
$upscope $end
$enddefinitions $end
#0
0!
0"
0#
0$
0%
0&
0'
0(
0)
0*
b0001 +
b0001 ,
1-
#5000000
1!
1%
1'
#10000000
0!
0%
0'
#15000000
1!
1"
1%
1'
1(
0-
#20000000
0!
0%
0'
#25000000
1!
1#
1%
1'
1)
b0010 ,
#30000000
0!
0%
0'
#35000000
1!
0#
1%
1'
0)
b0010 +
b0100 ,
#40000000
0!
0%
0'
#45000000
1!
1%
1'
b0100 +
b1000 ,
#50000000
0!
0%
0'
#55000000
1!
1#
1$
1%
1'
1)
1*
b1000 +
b0010 ,
#60000000
0!
0%
0'
#65000000
1!
0#
0$
1%
1'
0)
0*
b0010 +
b0100 ,
#70000000
0!
0%
0'
#75000000
1!
1%
1'
b0100 +
b1000 ,
#80000000
0!
0%
0'
#85000000
1!
1#
1$
1%
1'
1)
1*
b1000 +
b0010 ,
#90000000
0!
0%
0'
#95000000
1!
0#
0$
1%
1'
0)
0*
b0010 +
b0100 ,
#100000000
0!
0%
0'
#105000000
1!
1%
1'
b0100 +
b1000 ,
#110000000
0!
0%
0'
#115000000
0!
0%
1&
0'
b1000 +
b0001 ,
