$date
  Sat Oct 17 19:15:12 2020
$end
$version
  GHDL v0
$end
$timescale
  1 fs
$end
$scope module standard $end
$upscope $end
$scope module std_logic_1164 $end
$upscope $end
$scope module numeric_std $end
$upscope $end
$scope module math_real $end
$upscope $end
$scope module random_stim_pkg $end
$upscope $end
$scope module report_pkg $end
$upscope $end
$scope module tb_comp_sel $end
$var reg 8 ! a[7:0] $end
$var reg 8 " b[7:0] $end
$var reg 1 # m $end
$var reg 8 $ o[7:0] $end
$scope module dut $end
$var reg 8 % a[7:0] $end
$var reg 8 & b[7:0] $end
$var reg 1 ' m $end
$var reg 8 ( o[7:0] $end
$var reg 8 ) sa[7:0] $end
$var reg 8 * sb[7:0] $end
$var reg 8 + s_o[7:0] $end
$var reg 8 , ua[7:0] $end
$var reg 8 - ub[7:0] $end
$var reg 8 . u_o[7:0] $end
$upscope $end
$upscope $end
$enddefinitions $end
#0
b00000110 !
b00001101 "
0#
b00001101 $
b00000110 %
b00001101 &
0'
b00001101 (
b00000110 )
b00001101 *
b00001101 +
b00000110 ,
b00001101 -
b00001101 .
#5000000
b11000100 !
b00110101 "
b11000100 $
b11000100 %
b00110101 &
b11000100 (
b11000100 )
b00110101 *
b00110101 +
b11000100 ,
b00110101 -
b11000100 .
#10000000
b11111101 !
b11011011 "
b11111101 $
b11111101 %
b11011011 &
b11111101 (
b11111101 )
b11011011 *
b11111101 +
b11111101 ,
b11011011 -
b11111101 .
#15000000
b00111101 !
b01101000 "
b01101000 $
b00111101 %
b01101000 &
b01101000 (
b00111101 )
b01101000 *
b01101000 +
b00111101 ,
b01101000 -
b01101000 .
#20000000
b00010100 !
b10011010 "
b10011010 $
b00010100 %
b10011010 &
b10011010 (
b00010100 )
b10011010 *
b00010100 +
b00010100 ,
b10011010 -
b10011010 .
#25000000
b10100011 !
b00111110 "
b10100011 $
b10100011 %
b00111110 &
b10100011 (
b10100011 )
b00111110 *
b00111110 +
b10100011 ,
b00111110 -
b10100011 .
#30000000
b10001011 !
b11010100 "
b11010100 $
b10001011 %
b11010100 &
b11010100 (
b10001011 )
b11010100 *
b11010100 +
b10001011 ,
b11010100 -
b11010100 .
#35000000
b01111001 !
b10001100 "
b10001100 $
b01111001 %
b10001100 &
b10001100 (
b01111001 )
b10001100 *
b01111001 +
b01111001 ,
b10001100 -
b10001100 .
#40000000
b11011111 !
b01111111 "
b11011111 $
b11011111 %
b01111111 &
b11011111 (
b11011111 )
b01111111 *
b01111111 +
b11011111 ,
b01111111 -
b11011111 .
#45000000
b01010000 !
b00110101 "
b01010000 $
b01010000 %
b00110101 &
b01010000 (
b01010000 )
b00110101 *
b01010000 +
b01010000 ,
b00110101 -
b01010000 .
#50000000
b10100011 !
b10100000 "
b10100011 $
b10100011 %
b10100000 &
b10100011 (
b10100011 )
b10100000 *
b10100011 +
b10100011 ,
b10100000 -
b10100011 .
#55000000
b11001001 !
b10110001 "
b11001001 $
b11001001 %
b10110001 &
b11001001 (
b11001001 )
b10110001 *
b11001001 +
b11001001 ,
b10110001 -
b11001001 .
#60000000
b01010111 !
b00101011 "
b01010111 $
b01010111 %
b00101011 &
b01010111 (
b01010111 )
b00101011 *
b01010111 +
b01010111 ,
b00101011 -
b01010111 .
#65000000
b11001111 !
b11010000 "
b11010000 $
b11001111 %
b11010000 &
b11010000 (
b11001111 )
b11010000 *
b11010000 +
b11001111 ,
b11010000 -
b11010000 .
#70000000
b11101001 !
b10000010 "
b11101001 $
b11101001 %
b10000010 &
b11101001 (
b11101001 )
b10000010 *
b11101001 +
b11101001 ,
b10000010 -
b11101001 .
#75000000
b00110000 !
b00010011 "
b00110000 $
b00110000 %
b00010011 &
b00110000 (
b00110000 )
b00010011 *
b00110000 +
b00110000 ,
b00010011 -
b00110000 .
#80000000
b11101010 !
b11010000 "
1#
b11101010 $
b11101010 %
b11010000 &
1'
b11101010 (
b11101010 )
b11010000 *
b11101010 +
b11101010 ,
b11010000 -
b11101010 .
#85000000
b11000100 !
b01000000 "
b01000000 $
b11000100 %
b01000000 &
b01000000 (
b11000100 )
b01000000 *
b01000000 +
b11000100 ,
b01000000 -
b11000100 .
#90000000
b10110101 !
b00110001 "
b00110001 $
b10110101 %
b00110001 &
b00110001 (
b10110101 )
b00110001 *
b00110001 +
b10110101 ,
b00110001 -
b10110101 .
#95000000
b10010101 !
b01100111 "
b01100111 $
b10010101 %
b01100111 &
b01100111 (
b10010101 )
b01100111 *
b01100111 +
b10010101 ,
b01100111 -
b10010101 .
#100000000
b11000001 !
b11000001 %
b11000001 )
b11000001 ,
b11000001 .
#105000000
b00011000 !
b01110011 "
b01110011 $
b00011000 %
b01110011 &
b01110011 (
b00011000 )
b01110011 *
b01110011 +
b00011000 ,
b01110011 -
b01110011 .
#110000000
b11101011 !
b11001011 "
b11101011 $
b11101011 %
b11001011 &
b11101011 (
b11101011 )
b11001011 *
b11101011 +
b11101011 ,
b11001011 -
b11101011 .
#115000000
b10101111 !
b00011100 "
b00011100 $
b10101111 %
b00011100 &
b00011100 (
b10101111 )
b00011100 *
b00011100 +
b10101111 ,
b00011100 -
b10101111 .
#120000000
b00010101 !
b11011101 "
b00010101 $
b00010101 %
b11011101 &
b00010101 (
b00010101 )
b11011101 *
b00010101 +
b00010101 ,
b11011101 -
b11011101 .
#125000000
b00111101 !
b00101001 "
b00111101 $
b00111101 %
b00101001 &
b00111101 (
b00111101 )
b00101001 *
b00111101 +
b00111101 ,
b00101001 -
b00111101 .
#130000000
b01001110 !
b10111111 "
b01001110 $
b01001110 %
b10111111 &
b01001110 (
b01001110 )
b10111111 *
b01001110 +
b01001110 ,
b10111111 -
b10111111 .
#135000000
b01100000 !
b11000001 "
b01100000 $
b01100000 %
b11000001 &
b01100000 (
b01100000 )
b11000001 *
b01100000 +
b01100000 ,
b11000001 -
b11000001 .
#140000000
b01011000 !
b00110100 "
b01011000 $
b01011000 %
b00110100 &
b01011000 (
b01011000 )
b00110100 *
b01011000 +
b01011000 ,
b00110100 -
b01011000 .
#145000000
b01010101 !
b01110011 "
b01110011 $
b01010101 %
b01110011 &
b01110011 (
b01010101 )
b01110011 *
b01110011 +
b01010101 ,
b01110011 -
b01110011 .
#150000000
b11010101 !
b10111111 "
b11010101 $
b11010101 %
b10111111 &
b11010101 (
b11010101 )
b10111111 *
b11010101 +
b11010101 ,
b10111111 -
b11010101 .
#155000000
b10111110 !
b01011001 "
b01011001 $
b10111110 %
b01011001 &
b01011001 (
b10111110 )
b01011001 *
b01011001 +
b10111110 ,
b01011001 -
b10111110 .
#160000000
